…
    ##          Channel           Region            Fresh             Milk 
    ##             TRUE             TRUE             TRUE             TRUE 
    ##          Grocery           Frozen Detergents_Paper       Delicassen 
    ##             TRUE             TRUE             TRUE             TRUE

``` r
# -num.cols- being a condition
data.num <- customers_data[ , num.cols]                        
data.num 
```

    ## # A tibble: 440 x 8
    ##    Channel Region Fresh  Milk Grocery Frozen Detergents_Paper Delicassen
    ##      <dbl>  <dbl> <dbl> <dbl>   <dbl>  <dbl>            <dbl>      <dbl>
    ##  1       2      3 12669  9656    7561    214             2674       1338
    ##  2       2      3  7057  9810    9568   1762             3293       1776
    ##  3       2      3  6353  8808    7684   2405             3516       7844
    ##  4       1      3 13265  1196    4221   6404              507       1788
    ##  5       2      3 22615  5410    7198   3915             1777       5185
    ##  6       2      3  9413  8259    5126    666             1795       1451
    ##  7       2      3 12126  3199    6975    480             3140        545
    ##  8       2      3  7579  4956    9426   1669             3321       2566
    ##  9       1      3  5963  3648    6192    425             1716        750
    ## 10       2      3  6006 11093   18881   1159             7425       2098
    ## # ... with 430 more rows
…
    ## [1] "Channel"
    ## # A tibble: 2 x 1
    ##   Channel   
    ##   <chr>     
    ## 1 retail    
    ## 2 restaurant
    ## [1] "Region"
    ## # A tibble: 3 x 1
    ##   Region      
    ##   <chr>       
    ## 1 Other region
    ## 2 Lisbon      
    ## 3 Porto       
    ## [1] "Fresh"
    ## # A tibble: 433 x 1
    ##    Fresh
    ##    <dbl>
    ##  1 12669
    ##  2  7057
    ##  3  6353
    ##  4 13265
    ##  5 22615
    ##  6  9413
    ##  7 12126
    ##  8  7579
    ##  9  5963
    ## 10  6006
    ## # ... with 423 more rows
    ## [1] "Milk"
    ## # A tibble: 421 x 1
    ##     Milk
    ##    <dbl>
    ##  1  9656
    ##  2  9810
    ##  3  8808
    ##  4  1196
    ##  5  5410
    ##  6  8259
    ##  7  3199
    ##  8  4956
    ##  9  3648
    ## 10 11093
    ## # ... with 411 more rows
    ## [1] "Grocery"
    ## # A tibble: 430 x 1
    ##    Grocery
    ##      <dbl>
    ##  1    7561
    ##  2    9568
    ##  3    7684
    ##  4    4221
    ##  5    7198
    ##  6    5126
    ##  7    6975
    ##  8    9426
    ##  9    6192
    ## 10   18881
    ## # ... with 420 more rows
    ## [1] "Frozen"
    ## # A tibble: 426 x 1
    ##    Frozen
    ##     <dbl>
    ##  1    214
    ##  2   1762
    ##  3   2405
    ##  4   6404
    ##  5   3915
    ##  6    666
    ##  7    480
    ##  8   1669
    ##  9    425
    ## 10   1159
    ## # ... with 416 more rows
    ## [1] "Detergents_Paper"
    ## # A tibble: 417 x 1
    ##    Detergents_Paper
    ##               <dbl>
    ##  1             2674
    ##  2             3293
    ##  3             3516
    ##  4              507
    ##  5             1777
    ##  6             1795
    ##  7             3140
    ##  8             3321
    ##  9             1716
    ## 10             7425
    ## # ... with 407 more rows
    ## [1] "Delicassen"
    ## # A tibble: 403 x 1
    ##    Delicassen
    ##         <dbl>
    ##  1       1338
    ##  2       1776
    ##  3       7844
    ##  4       1788
    ##  5       5185
    ##  6       1451
    ##  7        545
    ##  8       2566
    ##  9        750
    ## 10       2098
    ## # ... with 393 more rows
…
